Differential privacy examples
…
Determining \(k\)-anonymity

indo %>% 
  group_by(across()) %>% 
  summarize(k_value = n()) %>% 
  arrange(desc(k_value))

`summarise()` has grouped output by 'site', 'age', 'risk'. You can override
using the `.groups` argument.

# A tibble: 412 × 5
# Groups:   site, age, risk [368]
   site    age  risk gender   k_value
   <fct> <dbl> <dbl> <fct>      <int>
 1 2_IU     40   2.5 1_female       7
 2 2_IU     49   2.5 1_female       7
 3 2_IU     29   2.5 1_female       6
 4 2_IU     30   2.5 1_female       6
 5 2_IU     34   2.5 1_female       6
 6 2_IU     44   2.5 1_female       6
 7 2_IU     48   2.5 1_female       6
 8 2_IU     31   2.5 1_female       5
 9 2_IU     41   1.5 1_female       5
10 2_IU     47   2.5 1_female       5
# … with 402 more rows
# ℹ Use `print(n = ...)` to see more rows
…
